%YAML 1.1
%TAG !u! tag:unity3d.com,2011:
--- !u!74 &7400000
AnimationClip:
  m_ObjectHideFlags: 0
  m_PrefabParentObject: {fileID: 0}
  m_PrefabInternal: {fileID: 0}
  m_Name: Bump_In
  serializedVersion: 6
  m_Legacy: 0
  m_Compressed: 0
  m_UseHighQualityCurve: 1
  m_RotationCurves: []
  m_CompressedRotationCurves: []
  m_EulerCurves:
  - curve:
      serializedVersion: 2
      m_Curve:
      - serializedVersion: 2
        time: 0
        value: {x: 0, y: 0, z: 68.12}
        inSlope: {x: 0, y: 0, z: 0}
        outSlope: {x: 0, y: 0, z: 0}
        tangentMode: 0
      - serializedVersion: 2
        time: 0.41666666
        value: {x: 2.5249999, y: 3.985, z: -18.8}
        inSlope: {x: 6.0600004, y: 9.564, z: 0}
        outSlope: {x: 6.0600004, y: 9.564, z: 0}
        tangentMode: 0
      - serializedVersion: 2
        time: 0.8333333
        value: {x: 5.05, y: 7.97, z: 44.71}
        inSlope: {x: 2.941748, y: 0, z: 41.53846}
        outSlope: {x: 2.941748, y: 0, z: -19.472988}
        tangentMode: 0
      - serializedVersion: 2
        time: 3.85
        value: {x: 44.43, y: -8.8, z: 10.338}
        inSlope: {x: 19.62112, y: 0, z: -15.41116}
        outSlope: {x: 19.62112, y: 0, z: -15.41116}
        tangentMode: 0
      - serializedVersion: 2
        time: 3.9833333
        value: {x: 20, y: 71.96, z: 5.525841}
        inSlope: {x: 26.649721, y: 0, z: -10.168838}
        outSlope: {x: 26.649721, y: 0, z: -10.168838}
        tangentMode: 0
      - serializedVersion: 2
        time: 4.1
        value: {x: 15, y: -34.3, z: 2.1034563}
        inSlope: {x: 28.328562, y: 0, z: -8.0865965}
        outSlope: {x: 28.328562, y: 0, z: -8.0865965}
        tangentMode: 0
      - serializedVersion: 2
        time: 4.2
        value: {x: 10, y: 38.5, z: 1.0661095}
        inSlope: {x: 54.09083, y: 0, z: -3.0782285}
        outSlope: {x: 54.09083, y: 0, z: -3.0782285}
        tangentMode: 0
      - serializedVersion: 2
        time: 4.35
        value: {x: 3.2, y: 15.6, z: 1.0661095}
        inSlope: {x: 54.09083, y: 0, z: -3.0782285}
        outSlope: {x: 54.09083, y: 0, z: -3.0782285}
        tangentMode: 0
      - serializedVersion: 2
        time: 4.4
        value: {x: 3.2, y: 15.6, z: 1.0661095}
        inSlope: {x: 54.09083, y: 0, z: -3.0782285}
        outSlope: {x: 54.09083, y: 0, z: -3.0782285}
        tangentMode: 0
      - serializedVersion: 2
        time: 4.55
        value: {x: 3.2, y: 15.6, z: 1.0661095}
        inSlope: {x: 0, y: 0, z: 0}
        outSlope: {x: 0, y: 0, z: 0}
        tangentMode: 0
      - serializedVersion: 2
        time: 5.05
        value: {x: 3.2, y: 15.6, z: 1.0661095}
        inSlope: {x: 0, y: 0, z: 0}
        outSlope: {x: 0, y: 0, z: 0}
        tangentMode: 0
      m_PreInfinity: 2
      m_PostInfinity: 2
      m_RotationOrder: 4
    path: 
  m_PositionCurves:
  - curve:
      serializedVersion: 2
      m_Curve:
      - serializedVersion: 2
        time: 0
        value: {x: 5, y: 12, z: 0}
        inSlope: {x: 0, y: 0, z: 0}
        outSlope: {x: 0, y: 0, z: 0}
        tangentMode: 0
      - serializedVersion: 2
        time: 0.5
        value: {x: -1.92, y: -6.94, z: 0}
        inSlope: {x: 0, y: -11.59, z: 0}
        outSlope: {x: 0, y: -11.59, z: 0}
        tangentMode: 0
      - serializedVersion: 2
        time: 0.8333333
        value: {x: 3.15, y: -2.04, z: 0}
        inSlope: {x: 0, y: 0.22309071, z: 0}
        outSlope: {x: 0, y: 8.279979, z: 0}
        tangentMode: 0
      - serializedVersion: 2
        time: 3.85
        value: {x: 1.6524072, y: -0.37, z: 0}
        inSlope: {x: -0.030381931, y: 0, z: 0}
        outSlope: {x: -0.030381931, y: 0, z: 0}
        tangentMode: 0
      - serializedVersion: 2
        time: 3.9833333
        value: {x: 1.6284814, y: -1.87, z: 0}
        inSlope: {x: 0, y: 0, z: 0}
        outSlope: {x: 0, y: 0, z: 0}
        tangentMode: 0
      - serializedVersion: 2
        time: 4.4
        value: {x: 1.6284814, y: -4.37, z: 0}
        inSlope: {x: 0, y: 0, z: 0}
        outSlope: {x: 0, y: 0, z: 0}
        tangentMode: 0
      - serializedVersion: 2
        time: 4.55
        value: {x: 1.55, y: -5.4, z: 0}
        inSlope: {x: -0.4829626, y: 0, z: 0}
        outSlope: {x: -0.4829626, y: 34.21195, z: 0}
        tangentMode: 0
      - serializedVersion: 2
        time: 5.05
        value: {x: 0, y: 0, z: 0}
        inSlope: {x: 0, y: 0, z: 0}
        outSlope: {x: 0, y: 0, z: 0}
        tangentMode: 0
      m_PreInfinity: 2
      m_PostInfinity: 2
      m_RotationOrder: 4
    path: 
  m_ScaleCurves:
  - curve:
      serializedVersion: 2
      m_Curve:
      - serializedVersion: 2
        time: 0
        value: {x: 1, y: 1, z: 1}
        inSlope: {x: 0, y: 0, z: 0}
        outSlope: {x: 0, y: 0, z: 0}
        tangentMode: 0
      - serializedVersion: 2
        time: 0.5
        value: {x: 1.25, y: 1.25, z: 1.25}
        inSlope: {x: 1.25, y: 1.2499999, z: 1.25}
        outSlope: {x: 1.25, y: 1.2499999, z: 1.25}
        tangentMode: 0
      - serializedVersion: 2
        time: 0.8
        value: {x: 5.2057276, y: 5.2216616, z: 5.2340918}
        inSlope: {x: 9.53127, y: 9.340062, z: 9.1909}
        outSlope: {x: 9.53127, y: 9.340062, z: 9.1909}
        tangentMode: 0
      - serializedVersion: 2
        time: 0.8333333
        value: {x: 6, y: 6, z: 0.4}
        inSlope: {x: 24.62495, y: 24.034813, z: 23.574423}
        outSlope: {x: -4.1167097, y: -4.1788936, z: 1.0721817}
        tangentMode: 0
      - serializedVersion: 2
        time: 4.4
        value: {x: 1, y: 1, z: 1}
        inSlope: {x: 0.024248585, y: -0.017118815, z: 0.016983308}
        outSlope: {x: -2.3076923, y: -0.017118815, z: 0.016983308}
        tangentMode: 0
      - serializedVersion: 2
        time: 4.55
        value: {x: 1, y: 0.72, z: 1}
        inSlope: {x: 0, y: 0, z: 0}
        outSlope: {x: 0, y: 0, z: 0}
        tangentMode: 0
      - serializedVersion: 2
        time: 4.8
        value: {x: 1, y: 1.25, z: 1}
        inSlope: {x: 0, y: 0, z: 0}
        outSlope: {x: 0, y: 0, z: 0}
        tangentMode: 0
      - serializedVersion: 2
        time: 5.05
        value: {x: 1, y: 1, z: 1}
        inSlope: {x: 0, y: 0, z: 0}
        outSlope: {x: 0, y: 0, z: 0}
        tangentMode: 0
      m_PreInfinity: 2
      m_PostInfinity: 2
      m_RotationOrder: 4
    path: 
  m_FloatCurves:
  - curve:
      serializedVersion: 2
      m_Curve:
      - serializedVersion: 2
        time: 0
        value: 1
        inSlope: Infinity
        outSlope: Infinity
        tangentMode: 103
      - serializedVersion: 2
        time: 0.8333333
        value: 0
        inSlope: Infinity
        outSlope: Infinity
        tangentMode: 103
      - serializedVersion: 2
        time: 3.9833333
        value: 1
        inSlope: Infinity
        outSlope: Infinity
        tangentMode: 103
      - serializedVersion: 2
        time: 5.05
        value: 1
        inSlope: Infinity
        outSlope: Infinity
        tangentMode: 103
      m_PreInfinity: 2
      m_PostInfinity: 2
      m_RotationOrder: 4
    attribute: m_IsActive
    path: Wisp-Body-V1-01
    classID: 1
    script: {fileID: 0}
  - curve:
      serializedVersion: 2
      m_Curve:
      - serializedVersion: 2
        time: 0
        value: 0
        inSlope: Infinity
        outSlope: Infinity
        tangentMode: 103
      - serializedVersion: 2
        time: 0.8333333
        value: 1
        inSlope: Infinity
        outSlope: Infinity
        tangentMode: 103
      - serializedVersion: 2
        time: 3.9833333
        value: 0
        inSlope: Infinity
        outSlope: Infinity
        tangentMode: 103
      - serializedVersion: 2
        time: 5.05
        value: 0
        inSlope: Infinity
        outSlope: Infinity
        tangentMode: 103
      m_PreInfinity: 2
      m_PostInfinity: 2
      m_RotationOrder: 4
    attribute: m_IsActive
    path: Wisp-Body-V1-02
    classID: 1
    script: {fileID: 0}
  m_PPtrCurves: []
  m_SampleRate: 60
  m_WrapMode: 0
  m_Bounds:
    m_Center: {x: 0, y: 0, z: 0}
    m_Extent: {x: 0, y: 0, z: 0}
  m_ClipBindingConstant:
    genericBindings:
    - serializedVersion: 2
      path: 0
      attribute: 1
      script: {fileID: 0}
      typeID: 4
      customType: 0
      isPPtrCurve: 0
    - serializedVersion: 2
      path: 0
      attribute: 4
      script: {fileID: 0}
      typeID: 4
      customType: 4
      isPPtrCurve: 0
    - serializedVersion: 2
      path: 0
      attribute: 3
      script: {fileID: 0}
      typeID: 4
      customType: 0
      isPPtrCurve: 0
    - serializedVersion: 2
      path: 1082341796
      attribute: 2086281974
      script: {fileID: 0}
      typeID: 1
      customType: 0
      isPPtrCurve: 0
    - serializedVersion: 2
      path: 3649726494
      attribute: 2086281974
      script: {fileID: 0}
      typeID: 1
      customType: 0
      isPPtrCurve: 0
    pptrCurveMapping: []
  m_AnimationClipSettings:
    serializedVersion: 2
    m_AdditiveReferencePoseClip: {fileID: 0}
    m_AdditiveReferencePoseTime: 0
    m_StartTime: 0
    m_StopTime: 5.05
    m_OrientationOffsetY: 0
    m_Level: 0
    m_CycleOffset: 0
    m_HasAdditiveReferencePose: 0
    m_LoopTime: 0
    m_LoopBlend: 0
    m_LoopBlendOrientation: 0
    m_LoopBlendPositionY: 0
    m_LoopBlendPositionXZ: 0
    m_KeepOriginalOrientation: 0
    m_KeepOriginalPositionY: 1
    m_KeepOriginalPositionXZ: 0
    m_HeightFromFeet: 0
    m_Mirror: 0
  m_EditorCurves:
  - curve:
      serializedVersion: 2
      m_Curve:
      - serializedVersion: 2
        time: 0
        value: 5
        inSlope: 0
        outSlope: 0
        tangentMode: 136
      - serializedVersion: 2
        time: 0.5
        value: -1.92
        inSlope: 0
        outSlope: 0
        tangentMode: 136
      - serializedVersion: 2
        time: 0.8333333
        value: 3.15
        inSlope: 0
        outSlope: 0
        tangentMode: 136
      - serializedVersion: 2
        time: 3.85
        value: 1.6524072
        inSlope: -0.030381931
        outSlope: -0.030381931
        tangentMode: 136
      - serializedVersion: 2
        time: 3.9833333
        value: 1.6284814
        inSlope: 0
        outSlope: 0
        tangentMode: 136
      - serializedVersion: 2
        time: 4.4
        value: 1.6284814
        inSlope: 0
        outSlope: 0
        tangentMode: 136
      - serializedVersion: 2
        time: 4.55
        value: 1.55
        inSlope: -0.4829626
        outSlope: -0.4829626
        tangentMode: 136
      - serializedVersion: 2
        time: 5.05
        value: 0
        inSlope: 0
        outSlope: 0
        tangentMode: 136
      m_PreInfinity: 2
      m_PostInfinity: 2
      m_RotationOrder: 4
    attribute: m_LocalPosition.x
    path: 
    classID: 4
    script: {fileID: 0}
  - curve:
      serializedVersion: 2
      m_Curve:
      - serializedVersion: 2
        time: 0
        value: 12
        inSlope: 0
        outSlope: 0
        tangentMode: 136
      - serializedVersion: 2
        time: 0.5
        value: -6.94
        inSlope: -11.59
        outSlope: -11.59
        tangentMode: 34
      - serializedVersion: 2
        time: 0.8333333
        value: -2.04
        inSlope: 0.22309071
        outSlope: 8.279979
        tangentMode: 1
      - serializedVersion: 2
        time: 3.85
        value: -0.37
        inSlope: 0
        outSlope: 0
        tangentMode: 1
      - serializedVersion: 2
        time: 3.9833333
        value: -1.87
        inSlope: 0
        outSlope: 0
        tangentMode: 1
      - serializedVersion: 2
        time: 4.4
        value: -4.37
        inSlope: 0
        outSlope: 0
        tangentMode: 1
      - serializedVersion: 2
        time: 4.55
        value: -5.4
        inSlope: 0
        outSlope: 34.21195
        tangentMode: 1
      - serializedVersion: 2
        time: 5.05
        value: 0
        inSlope: 0
        outSlope: 0
        tangentMode: 1
      m_PreInfinity: 2
      m_PostInfinity: 2
      m_RotationOrder: 4
    attribute: m_LocalPosition.y
    path: 
    classID: 4
    script: {fileID: 0}
  - curve:
      serializedVersion: 2
      m_Curve:
      - serializedVersion: 2
        time: 0
        value: 0
        inSlope: 0
        outSlope: 0
        tangentMode: 136
      - serializedVersion: 2
        time: 0.5
        value: 0
        inSlope: 0
        outSlope: 0
        tangentMode: 136
      - serializedVersion: 2
        time: 0.8333333
        value: 0
        inSlope: 0
        outSlope: 0
        tangentMode: 136
      - serializedVersion: 2
        time: 3.85
        value: 0
        inSlope: 0
        outSlope: 0
        tangentMode: 136
      - serializedVersion: 2
        time: 3.9833333
        value: 0
        inSlope: 0
        outSlope: 0
        tangentMode: 136
      - serializedVersion: 2
        time: 4.4
        value: 0
        inSlope: 0
        outSlope: 0
        tangentMode: 136
      - serializedVersion: 2
        time: 4.55
        value: 0
        inSlope: 0
        outSlope: 0
        tangentMode: 136
      - serializedVersion: 2
        time: 5.05
        value: 0
        inSlope: 0
        outSlope: 0
        tangentMode: 136
      m_PreInfinity: 2
      m_PostInfinity: 2
      m_RotationOrder: 4
    attribute: m_LocalPosition.z
    path: 
    classID: 4
    script: {fileID: 0}
  - curve:
      serializedVersion: 2
      m_Curve:
      - serializedVersion: 2
        time: 0
        value: 1
        inSlope: 0
        outSlope: 0
        tangentMode: 136
      - serializedVersion: 2
        time: 0.5
        value: 1.25
        inSlope: 1.25
        outSlope: 1.25
        tangentMode: 136
      - serializedVersion: 2
        time: 0.8
        value: 5.2057276
        inSlope: 9.53127
        outSlope: 9.53127
        tangentMode: 1
      - serializedVersion: 2
        time: 0.8333333
        value: 6
        inSlope: 24.62495
        outSlope: -4.1167097
        tangentMode: 1
      - serializedVersion: 2
        time: 4.4
        value: 1
        inSlope: 0.024248585
        outSlope: -2.3076923
        tangentMode: 1
      - serializedVersion: 2
        time: 4.55
        value: 1
        inSlope: 0
        outSlope: 0
        tangentMode: 1
      - serializedVersion: 2
        time: 4.8
        value: 1
        inSlope: 0
        outSlope: 0
        tangentMode: 1
      - serializedVersion: 2
        time: 5.05
        value: 1
        inSlope: 0
        outSlope: 0
        tangentMode: 1
      m_PreInfinity: 2
      m_PostInfinity: 2
      m_RotationOrder: 4
    attribute: m_LocalScale.x
    path: 
    classID: 4
    script: {fileID: 0}
  - curve:
      serializedVersion: 2
      m_Curve:
      - serializedVersion: 2
        time: 0
        value: 1
        inSlope: 0
        outSlope: 0
        tangentMode: 136
      - serializedVersion: 2
        time: 0.5
        value: 1.25
        inSlope: 1.2499999
        outSlope: 1.2499999
        tangentMode: 136
      - serializedVersion: 2
        time: 0.8
        value: 5.2216616
        inSlope: 9.340062
        outSlope: 9.340062
        tangentMode: 1
      - serializedVersion: 2
        time: 0.8333333
        value: 6
        inSlope: 24.034813
        outSlope: -4.1788936
        tangentMode: 1
      - serializedVersion: 2
        time: 4.4
        value: 1
        inSlope: -0.017118815
        outSlope: -0.017118815
        tangentMode: 0
      - serializedVersion: 2
        time: 4.55
        value: 0.72
        inSlope: 0
        outSlope: 0
        tangentMode: 0
      - serializedVersion: 2
        time: 4.8
        value: 1.25
        inSlope: 0
        outSlope: 0
        tangentMode: 0
      - serializedVersion: 2
        time: 5.05
        value: 1
        inSlope: 0
        outSlope: 0
        tangentMode: 0
      m_PreInfinity: 2
      m_PostInfinity: 2
      m_RotationOrder: 4
    attribute: m_LocalScale.y
    path: 
    classID: 4
    script: {fileID: 0}
  - curve:
      serializedVersion: 2
      m_Curve:
      - serializedVersion: 2
        time: 0
        value: 1
        inSlope: 0
        outSlope: 0
        tangentMode: 136
      - serializedVersion: 2
        time: 0.5
        value: 1.25
        inSlope: 1.25
        outSlope: 1.25
        tangentMode: 136
      - serializedVersion: 2
        time: 0.8
        value: 5.2340918
        inSlope: 9.1909
        outSlope: 9.1909
        tangentMode: 1
      - serializedVersion: 2
        time: 0.8333333
        value: 0.4
        inSlope: 23.574423
        outSlope: 1.0721817
        tangentMode: 1
      - serializedVersion: 2
        time: 4.4
        value: 1
        inSlope: 0.016983308
        outSlope: 0.016983308
        tangentMode: 0
      - serializedVersion: 2
        time: 4.55
        value: 1
        inSlope: 0
        outSlope: 0
        tangentMode: 0
      - serializedVersion: 2
        time: 4.8
        value: 1
        inSlope: 0
        outSlope: 0
        tangentMode: 0
      - serializedVersion: 2
        time: 5.05
        value: 1
        inSlope: 0
        outSlope: 0
        tangentMode: 0
      m_PreInfinity: 2
      m_PostInfinity: 2
      m_RotationOrder: 4
    attribute: m_LocalScale.z
    path: 
    classID: 4
    script: {fileID: 0}
  - curve:
      serializedVersion: 2
      m_Curve:
      - serializedVersion: 2
        time: 0
        value: 0
        inSlope: 0
        outSlope: 0
        tangentMode: 136
      - serializedVersion: 2
        time: 0.41666666
        value: 2.5249999
        inSlope: 6.0600004
        outSlope: 6.0600004
        tangentMode: 136
      - serializedVersion: 2
        time: 0.8333333
        value: 5.05
        inSlope: 2.941748
        outSlope: 2.941748
        tangentMode: 136
      - serializedVersion: 2
        time: 3.85
        value: 44.43
        inSlope: 19.62112
        outSlope: 19.62112
        tangentMode: 0
      - serializedVersion: 2
        time: 3.9833333
        value: 20
        inSlope: 26.649721
        outSlope: 26.649721
        tangentMode: 0
      - serializedVersion: 2
        time: 4.1
        value: 15
        inSlope: 28.328562
        outSlope: 28.328562
        tangentMode: 0
      - serializedVersion: 2
        time: 4.2
        value: 10
        inSlope: 54.09083
        outSlope: 54.09083
        tangentMode: 0
      - serializedVersion: 2
        time: 4.35
        value: 3.2
        inSlope: 54.09083
        outSlope: 54.09083
        tangentMode: 0
      - serializedVersion: 2
        time: 4.4
        value: 3.2
        inSlope: 54.09083
        outSlope: 54.09083
        tangentMode: 0
      - serializedVersion: 2
        time: 4.55
        value: 3.2
        inSlope: 0
        outSlope: 0
        tangentMode: 0
      - serializedVersion: 2
        time: 5.05
        value: 3.2
        inSlope: 0
        outSlope: 0
        tangentMode: 0
      m_PreInfinity: 2
      m_PostInfinity: 2
      m_RotationOrder: 4
    attribute: localEulerAnglesRaw.x
    path: 
    classID: 4
    script: {fileID: 0}
  - curve:
      serializedVersion: 2
      m_Curve:
      - serializedVersion: 2
        time: 0
        value: 0
        inSlope: 0
        outSlope: 0
        tangentMode: 136
      - serializedVersion: 2
        time: 0.41666666
        value: 3.985
        inSlope: 9.564
        outSlope: 9.564
        tangentMode: 136
      - serializedVersion: 2
        time: 0.8333333
        value: 7.97
        inSlope: 0
        outSlope: 0
        tangentMode: 136
      - serializedVersion: 2
        time: 3.85
        value: -8.8
        inSlope: 0
        outSlope: 0
        tangentMode: 136
      - serializedVersion: 2
        time: 3.9833333
        value: 71.96
        inSlope: 0
        outSlope: 0
        tangentMode: 136
      - serializedVersion: 2
        time: 4.1
        value: -34.3
        inSlope: 0
        outSlope: 0
        tangentMode: 136
      - serializedVersion: 2
        time: 4.2
        value: 38.5
        inSlope: 0
        outSlope: 0
        tangentMode: 136
      - serializedVersion: 2
        time: 4.35
        value: 15.6
        inSlope: 0
        outSlope: 0
        tangentMode: 136
      - serializedVersion: 2
        time: 4.4
        value: 15.6
        inSlope: 0
        outSlope: 0
        tangentMode: 136
      - serializedVersion: 2
        time: 4.55
        value: 15.6
        inSlope: 0
        outSlope: 0
        tangentMode: 136
      - serializedVersion: 2
        time: 5.05
        value: 15.6
        inSlope: 0
        outSlope: 0
        tangentMode: 136
      m_PreInfinity: 2
      m_PostInfinity: 2
      m_RotationOrder: 4
    attribute: localEulerAnglesRaw.y
    path: 
    classID: 4
    script: {fileID: 0}
  - curve:
      serializedVersion: 2
      m_Curve:
      - serializedVersion: 2
        time: 0
        value: 68.12
        inSlope: 0
        outSlope: 0
        tangentMode: 136
      - serializedVersion: 2
        time: 0.41666666
        value: -18.8
        inSlope: 0
        outSlope: 0
        tangentMode: 1
      - serializedVersion: 2
        time: 0.8333333
        value: 44.71
        inSlope: 41.53846
        outSlope: -19.472988
        tangentMode: 1
      - serializedVersion: 2
        time: 3.85
        value: 10.338
        inSlope: -15.41116
        outSlope: -15.41116
        tangentMode: 1
      - serializedVersion: 2
        time: 3.9833333
        value: 5.525841
        inSlope: -10.168838
        outSlope: -10.168838
        tangentMode: 1
      - serializedVersion: 2
        time: 4.1
        value: 2.1034563
        inSlope: -8.0865965
        outSlope: -8.0865965
        tangentMode: 1
      - serializedVersion: 2
        time: 4.2
        value: 1.0661095
        inSlope: -3.0782285
        outSlope: -3.0782285
        tangentMode: 1
      - serializedVersion: 2
        time: 4.35
        value: 1.0661095
        inSlope: -3.0782285
        outSlope: -3.0782285
        tangentMode: 1
      - serializedVersion: 2
        time: 4.4
        value: 1.0661095
        inSlope: -3.0782285
        outSlope: -3.0782285
        tangentMode: 1
      - serializedVersion: 2
        time: 4.55
        value: 1.0661095
        inSlope: 0
        outSlope: 0
        tangentMode: 1
      - serializedVersion: 2
        time: 5.05
        value: 1.0661095
        inSlope: 0
        outSlope: 0
        tangentMode: 1
      m_PreInfinity: 2
      m_PostInfinity: 2
      m_RotationOrder: 4
    attribute: localEulerAnglesRaw.z
    path: 
    classID: 4
    script: {fileID: 0}
  - curve:
      serializedVersion: 2
      m_Curve:
      - serializedVersion: 2
        time: 0
        value: 1
        inSlope: Infinity
        outSlope: Infinity
        tangentMode: 103
      - serializedVersion: 2
        time: 0.8333333
        value: 0
        inSlope: Infinity
        outSlope: Infinity
        tangentMode: 103
      - serializedVersion: 2
        time: 3.9833333
        value: 1
        inSlope: Infinity
        outSlope: Infinity
        tangentMode: 103
      - serializedVersion: 2
        time: 5.05
        value: 1
        inSlope: Infinity
        outSlope: Infinity
        tangentMode: 103
      m_PreInfinity: 2
      m_PostInfinity: 2
      m_RotationOrder: 4
    attribute: m_IsActive
    path: Wisp-Body-V1-01
    classID: 1
    script: {fileID: 0}
  - curve:
      serializedVersion: 2
      m_Curve:
      - serializedVersion: 2
        time: 0
        value: 0
        inSlope: Infinity
        outSlope: Infinity
        tangentMode: 103
      - serializedVersion: 2
        time: 0.8333333
        value: 1
        inSlope: Infinity
        outSlope: Infinity
        tangentMode: 103
      - serializedVersion: 2
        time: 3.9833333
        value: 0
        inSlope: Infinity
        outSlope: Infinity
        tangentMode: 103
      - serializedVersion: 2
        time: 5.05
        value: 0
        inSlope: Infinity
        outSlope: Infinity
        tangentMode: 103
      m_PreInfinity: 2
      m_PostInfinity: 2
      m_RotationOrder: 4
    attribute: m_IsActive
    path: Wisp-Body-V1-02
    classID: 1
    script: {fileID: 0}
  m_EulerEditorCurves:
  - curve:
      serializedVersion: 2
      m_Curve: []
      m_PreInfinity: 2
      m_PostInfinity: 2
      m_RotationOrder: 4
    attribute: m_LocalEulerAngles.x
    path: 
    classID: 4
    script: {fileID: 0}
  - curve:
      serializedVersion: 2
      m_Curve: []
      m_PreInfinity: 2
      m_PostInfinity: 2
      m_RotationOrder: 4
    attribute: m_LocalEulerAngles.y
    path: 
    classID: 4
    script: {fileID: 0}
  - curve:
      serializedVersion: 2
      m_Curve: []
      m_PreInfinity: 2
      m_PostInfinity: 2
      m_RotationOrder: 4
    attribute: m_LocalEulerAngles.z
    path: 
    classID: 4
    script: {fileID: 0}
  m_HasGenericRootTransform: 1
  m_HasMotionFloatCurves: 0
  m_GenerateMotionCurves: 0
  m_Events:
  - time: 0.75
    functionName: FaceSmash
    data: 
    objectReferenceParameter: {fileID: 0}
    floatParameter: 0
    intParameter: 0
    messageOptions: 0
